{"jfrog":
[{"name":"inUse","value":"false","required":"true"},
{"name":"serverUrl","value":"https://cloudmigrate.jfrog.io/cloudmigrate","required":"true"},
{"name":"userName","value":"admin","required":"true"},
{"name":"password","value":"Ex3Mc5Ma7Lh8Fu","required":"true"},
{"name":"apiKey","value":"","required":"false"},
{"name":"excludePatterns","value":"","required":"false"},
{"name":"publishRepoKey","value":"local-maven-repo","required":"true"},
{"name":"pluginRepoKey","value":"remote-maven-repo","required":"true"},
{"name":"snapshotRepoKey","value":"libs-snapshot-local","required":"true"},
{"name":"includeEnvVars","value":"true","required":"true"},
{"name":"envVarsExcludePatterns","value":"*password*,*secret*,*key*,*token*,*passphrase*","required":"true"},
{"name":"timeoutInSeconds","value":"60","required":"true"},
{"name":"buildName","value":"spring-mongo-demo-jfrog-build","required":"true"},
{"name":"buildNumber","value":"001","required":"true"},
{"name":"buildUrl","value":"https://bitbucket.org/tylertravismya/springmongodb/src","required":"false"},
{"name":"licenseAutoDiscover","value":"true","required":"true"},
{"name":"licenseIncludePublishedArtifacts","value":"false","required":"true"},
{"name":"licenseRunChecks","value":"true","required":"true"},
{"name":"licenseScopes","value":"compile,runtime","required":"false"},
{"name":"violationRecipients","value":"","required":"false"}],
"application":
[{"name":"name","value":"spring_mongodb_demo","required":"true"},
{"name":"description","value":"Spring MongoDB Demo","required":"false"},
{"name":"author","value":"dev@realmethods.com","required":""},
{"name":"corporate logo URL","value":"","required":""},
{"name":"application logo URL","value":"./img/turnstone.biologics.png","required":""},
{"name":"company name","value":"Turnstone Biologics","required":"true"},
{"name":"version","value":"0.0.1","required":"true"},
{"name":"package name","value":"com.occulue","required":"true"}],
"memcached":
[{"name":"host","value":"127.0.0.1","required":"true"},
{"name":"port","value":"11211","required":"true"}],
"mongodb":
[{"name":"server addresses","value":"127.0.0.1:27017","required":"false"},
{"name":"database name","value":"springmongodemo","required":"false"},
{"name":"credentials","value":"","required":"false"},
{"name":"search size","value":"10","required":"false"},
{"name":"default collection name","value":"default_collection","required":"false"},
{"name":"auto-increment id name","value":"_id","required":"false"},
{"name":"auto-increment seq name","value":"seq","required":"false"}]}
